<svg xmlns="http://www.w3.org/2000/svg" width="4.76" height="19.842" viewBox="0 0 4.76 19.842">
  <path id="Path_1437" data-name="Path 1437" d="M1.966,3.426H5.231L5.674-9.94H1.5ZM6.034,7.633A2.265,2.265,0,0,0,3.682,5.364a2.273,2.273,0,1,0,0,4.538A2.265,2.265,0,0,0,6.034,7.633Z" transform="translate(-1.274 9.94)" fill="#fff"/>
</svg>
