<svg xmlns="http://www.w3.org/2000/svg" width="24.899" height="24.643" viewBox="0 0 24.899 24.643">
  <path id="Path_1335" data-name="Path 1335" d="M689.193,325.762l12.183,9.9a.266.266,0,0,1-.168.472H676.843a.266.266,0,0,1-.168-.472l12.183-9.9A.266.266,0,0,1,689.193,325.762ZM699.5,346.73v-8.846a.353.353,0,0,0-.353-.353h-3.688a.353.353,0,0,0-.353.353v8.846a.353.353,0,0,0,.353.353h3.688A.353.353,0,0,0,699.5,346.73Zm-8.28,0v-8.846a.353.353,0,0,0-.353-.353h-3.688a.353.353,0,0,0-.353.353v8.846a.353.353,0,0,0,.353.353h3.688A.353.353,0,0,0,691.222,346.73Zm-8.28,0v-8.846a.353.353,0,0,0-.353-.353H678.9a.353.353,0,0,0-.353.353v8.846a.353.353,0,0,0,.353.353h3.688A.353.353,0,0,0,682.942,346.73Zm17.174,3.354v-1.338a.262.262,0,0,0-.262-.262H678.2a.262.262,0,0,0-.262.262v1.338a.262.262,0,0,0,.262.262h21.656A.262.262,0,0,0,700.116,350.083Z" transform="translate(-676.576 -325.703)" fill="#2e2e2e"/>
</svg>
