<svg xmlns="http://www.w3.org/2000/svg" width="13.32" height="15.966" viewBox="0 0 13.32 15.966">
  <path id="Path_1992" data-name="Path 1992" d="M-1667.505,1482.261a3.72,3.72,0,0,1-1.127-2.719,3.722,3.722,0,0,1,1.126-2.719,3.721,3.721,0,0,1,2.719-1.126,3.721,3.721,0,0,1,2.719,1.126,3.722,3.722,0,0,1,1.127,2.719,3.72,3.72,0,0,1-1.127,2.719,3.721,3.721,0,0,1-2.719,1.127A3.723,3.723,0,0,1-1667.505,1482.261Zm9.448,5.713a9.561,9.561,0,0,0-.13-1.009,7.89,7.89,0,0,0-.248-1.014,4.987,4.987,0,0,0-.417-.946,3.551,3.551,0,0,0-.628-.819,2.776,2.776,0,0,0-.9-.568,3.13,3.13,0,0,0-1.153-.209,1.171,1.171,0,0,0-.625.265c-.187.122-.406.263-.651.42a3.756,3.756,0,0,1-.843.371,3.348,3.348,0,0,1-1.03.167,3.355,3.355,0,0,1-1.031-.167,3.738,3.738,0,0,1-.842-.371c-.242-.155-.461-.3-.652-.42a1.169,1.169,0,0,0-.625-.265,3.125,3.125,0,0,0-1.153.209,2.778,2.778,0,0,0-.9.568,3.576,3.576,0,0,0-.629.819,5.016,5.016,0,0,0-.417.946,7.89,7.89,0,0,0-.248,1.014,9.443,9.443,0,0,0-.129,1.01c-.021.305-.032.623-.032.943a2.651,2.651,0,0,0,.787,2.006,2.835,2.835,0,0,0,2.029.74h7.688a2.836,2.836,0,0,0,2.029-.74,2.651,2.651,0,0,0,.787-2.006C-1658.026,1488.6-1658.036,1488.278-1658.057,1487.974Z" transform="translate(1671.346 -1475.697)" fill="#2e2e2e"/>
</svg>
