<svg xmlns="http://www.w3.org/2000/svg" width="15.591" height="22.392" viewBox="0 0 15.591 22.392">
  <g id="Group_730" data-name="Group 730" transform="translate(-1256.278 -1237.682)">
    <path id="Path_1336" data-name="Path 1336" d="M1256.8,1344.433a1.624,1.624,0,0,0-.009,2.3,2.545,2.545,0,0,1-.034,3.594,1.624,1.624,0,1,0,2.287,2.305,5.8,5.8,0,0,0,.052-8.186A1.624,1.624,0,0,0,1256.8,1344.433Z" transform="translate(0 -99.607)" fill="#2e2e2e"/>
    <path id="Path_1337" data-name="Path 1337" d="M1331.047,1302.076a1.624,1.624,0,0,0-2.305,2.287,6.278,6.278,0,0,1-.072,8.868,1.624,1.624,0,1,0,2.287,2.305A9.529,9.529,0,0,0,1331.047,1302.076Z" transform="translate(-67.396 -59.9)" fill="#2e2e2e"/>
    <path id="Path_1338" data-name="Path 1338" d="M1389.328,1238.153a1.623,1.623,0,0,0-.009,2.3,11.928,11.928,0,0,1-.131,16.849,1.624,1.624,0,1,0,2.287,2.305,15.179,15.179,0,0,0,.149-21.441A1.623,1.623,0,0,0,1389.328,1238.153Z" transform="translate(-124.115)" fill="#2e2e2e"/>
  </g>
</svg>
