<svg xmlns="http://www.w3.org/2000/svg" width="21.741" height="18.913" viewBox="0 0 21.741 18.913">
  <g id="Group_739" data-name="Group 739" transform="translate(0 -19.219)">
    <path id="Path_1352" data-name="Path 1352" d="M121.982,25.389a2.149,2.149,0,0,0,2.047-1.484,8.639,8.639,0,0,1-4.095,0A2.149,2.149,0,0,0,121.982,25.389Z" transform="translate(-111.112 -4.341)" fill="#48e587"/>
    <path id="Path_1353" data-name="Path 1353" d="M21.713,22.134a.5.5,0,0,0-.259-.285l-4.145-1.913a20.045,20.045,0,0,0-2.687-.707.494.494,0,0,0-.1-.009.487.487,0,0,0-.476.382,3.26,3.26,0,0,1-6.364,0,.488.488,0,0,0-.476-.382.494.494,0,0,0-.1.009,20.122,20.122,0,0,0-2.688.707L.286,21.849a.488.488,0,0,0-.258.285.484.484,0,0,0,.026.384l1.8,3.551a.489.489,0,0,0,.578.249l2-.592V37.641a.492.492,0,0,0,.492.491h11.9a.492.492,0,0,0,.491-.491V25.725l2,.592a.489.489,0,0,0,.578-.249l1.8-3.551A.493.493,0,0,0,21.713,22.134Z" transform="translate(0)" fill="#48e587"/>
  </g>
</svg>
